{
  "id": 3615630,
  "iid": 1,
  "project_id": 2009901,
  "milestone": null,
  "author": {
    "id": 513969,
    "state": "active",
    "web_url": "https://gitlab.com/jacobvosmaer-gitlab",
    "name": "Jacob Vosmaer",
    "avatar_url": "https://secure.gravatar.com/avatar/d92f60988b2c44662df64bd895f28dbf?s=80&d=identicon",
    "username": "jacobvosmaer-gitlab"
  },
  "description": "(After reading https://gitlab.com/gitlab-org/git-access-daemon/blob/0ed34d2f29ec55a225bee472d3ac47abe51a67c8/design/README.md)\r\n\r\n> The first step will be to just remove all the git processes from the workers into a specific fleet of git workers, it's good enough to have just a couple of those as the downside of being attacked will be that these hosts will be under heavy load, not so the workers.\r\n\r\n(Side note: this sounds like we think of our users as 'attackers'. I don't think this is the right mindset for a discussion performance.)\r\n\r\nI think this first step can be achieved (and put to the test) by creating a new 'frontend' Chef role that would look like:\r\n\r\n- runs sshd to accept Git SSH sessions (gitlab-shell)\r\n- runs gitlab-workhorse\r\n- has file system access (identical layout to 'worker' machines)\r\n- Redis access\r\n- TCP access to 'worker' machines\r\n- TCP access from HAproxy machines\r\n\r\nI think this can be built with minor Omnibus changes (I am not sure if we have the flexibility to run workhorse on a different machine than Unicorn at the moment), and by making a variation on the gitlab.com 'worker' Chef role.",
  "state": "closed",
  "assignees": [],
  "assignee": null,
  "upvotes": 0,
  "downvotes": 0,
  "labels": [],
  "title": "Consider a 'front-end' Chef role before implementing 'stage 1'",
  "updated_at": "2018-03-05T20:42:12.664Z",
  "created_at": "2016-11-28T13:31:54.7Z",
  "closed_at": null,
  "subscribed": false,
  "user_notes_count": 5,
  "due_date": null,
  "web_url": "https://gitlab.com/gitlab-org/gitaly/issues/1",
  "time_stats": {
    "human_time_estimate": "",
    "human_total_time_spent": "",
    "time_estimate": 0,
    "total_time_spent": 0
  },
  "confidential": false,
  "weight": 0,
  "discussion_locked": false,
  "_links": {
    "self": "https://gitlab.com/api/v4/projects/2009901/issues/1",
    "notes": "https://gitlab.com/api/v4/projects/2009901/issues/1/notes",
    "award_emoji": "https://gitlab.com/api/v4/projects/2009901/issues/1/award_emoji",
    "project": "https://gitlab.com/api/v4/projects/2009901"
  },
  "issue_link_id": 0
}
